[gd_scene load_steps=4 format=2]

[ext_resource path="res://scripts/vehicles/gp2.gd" type="Script" id=1]
[ext_resource path="res://assets/assets.png" type="Texture" id=2]

[sub_resource type="RectangleShape2D" id=1]
extents = Vector2( 29, 62 )

[node name="gp2" type="KinematicBody2D" groups=[
"vehicle",
]]
rotation = 1.5708
scale = Vector2( 0.15, 0.15 )
collision_layer = 2
script = ExtResource( 1 )

[node name="CollisionShape2D" type="CollisionShape2D" parent="."]
shape = SubResource( 1 )

[node name="car" type="Sprite" parent="."]
position = Vector2( 0, -2 )
texture = ExtResource( 2 )
region_enabled = true
region_rect = Rect2( 256, 0, 128, 128 )

[node name="color_stripe" type="Sprite" parent="."]
position = Vector2( 0, -2 )
texture = ExtResource( 2 )
region_enabled = true
region_rect = Rect2( 384, 0, 128, 128 )
