[gd_scene load_steps=3 format=2]

[ext_resource path="res://scripts/components/lap_checkpoint.gd" type="Script" id=1]

[sub_resource type="CircleShape2D" id=1]
radius = 200.0

[node name="lap_checkpoint" type="Area2D"]
collision_mask = 2
script = ExtResource( 1 )

[node name="CollisionShape2D" type="CollisionShape2D" parent="."]
shape = SubResource( 1 )
[connection signal="body_entered" from="." to="." method="_on_lap_checkpoint_body_entered"]
