[gd_scene format=2]

[node name="player" type="HBoxContainer"]
margin_right = 175.0
margin_bottom = 20.0
size_flags_horizontal = 3
size_flags_vertical = 3

[node name="color" type="ColorRect" parent="."]
margin_right = 20.0
margin_bottom = 20.0
rect_min_size = Vector2( 20, 20 )
size_flags_vertical = 3

[node name="name" type="Label" parent="."]
margin_left = 24.0
margin_top = 3.0
margin_right = 24.0
margin_bottom = 17.0

[node name="spacer" type="Control" parent="."]
margin_left = 28.0
margin_right = 53.0
margin_bottom = 20.0
rect_min_size = Vector2( 25, 0 )

[node name="ready" type="Label" parent="."]
margin_left = 57.0
margin_top = 3.0
margin_right = 92.0
margin_bottom = 17.0
text = "ready"

[node name="status" type="Control" parent="."]
margin_left = 96.0
margin_right = 96.0
margin_bottom = 20.0

[node name="ready_true" type="ColorRect" parent="status"]
margin_right = 20.0
margin_bottom = 20.0
rect_min_size = Vector2( 20, 20 )
color = Color( 0.356863, 0.682353, 0.329412, 1 )

[node name="ready_false" type="ColorRect" parent="status"]
margin_right = 20.0
margin_bottom = 20.0
rect_min_size = Vector2( 20, 20 )
color = Color( 0.713726, 0.266667, 0.266667, 1 )
