<?xml version="1.0" encoding="UTF-8" standalone="no"?>
<!-- Created with Inkscape (http://www.inkscape.org/) -->

<svg
   xmlns:dc="http://purl.org/dc/elements/1.1/"
   xmlns:cc="http://creativecommons.org/ns#"
   xmlns:rdf="http://www.w3.org/1999/02/22-rdf-syntax-ns#"
   xmlns:svg="http://www.w3.org/2000/svg"
   xmlns="http://www.w3.org/2000/svg"
   xmlns:sodipodi="http://sodipodi.sourceforge.net/DTD/sodipodi-0.dtd"
   xmlns:inkscape="http://www.inkscape.org/namespaces/inkscape"
   width="200mm"
   height="200mm"
   viewBox="0 0 200 200"
   version="1.1"
   id="svg1870"
   inkscape:version="0.92.4 5da689c313, 2019-01-14"
   sodipodi:docname="4.svg">
  <defs
     id="defs1864">
    <inkscape:path-effect
       effect="powerstroke"
       id="path-effect2417"
       is_visible="true"
       offset_points="0,0.13229166"
       sort_points="true"
       interpolator_type="CubicBezierJohan"
       interpolator_beta="0.2"
       start_linecap_type="zerowidth"
       linejoin_type="extrp_arc"
       miter_limit="4"
       end_linecap_type="zerowidth" />
  </defs>
  <sodipodi:namedview
     id="base"
     pagecolor="#ffffff"
     bordercolor="#666666"
     borderopacity="1.0"
     inkscape:pageopacity="0.0"
     inkscape:pageshadow="2"
     inkscape:zoom="1.979899"
     inkscape:cx="438.55102"
     inkscape:cy="196.91452"
     inkscape:document-units="mm"
     inkscape:current-layer="layer1"
     showgrid="false"
     inkscape:window-width="1880"
     inkscape:window-height="1020"
     inkscape:window-x="1940"
     inkscape:window-y="20"
     inkscape:window-maximized="0" />
  <metadata
     id="metadata1867">
    <rdf:RDF>
      <cc:Work
         rdf:about="">
        <dc:format>image/svg+xml</dc:format>
        <dc:type
           rdf:resource="http://purl.org/dc/dcmitype/StillImage" />
        <dc:title />
      </cc:Work>
    </rdf:RDF>
  </metadata>
  <g
     inkscape:label="Layer 1"
     inkscape:groupmode="layer"
     id="layer1"
     transform="translate(0,-97)">
    <path
       sodipodi:nodetypes="ccccccsccsccsscccscccsccc"
       inkscape:connector-curvature="0"
       id="path878"
       d="m 181.76979,244.37186 c -2.2509,2.35552 -4.29327,2.13472 -5.78737,0.88009 m -5.1289,-7.67968 c -1.7746,-3.40904 -3.47415,-7.14221 -6.14844,-10.13477 -1.33715,-1.49628 -3.02685,-2.8777 -5.25196,-3.51953 -2.2251,-0.64183 -4.7952,-0.32599 -7.04296,0.76758 -2.76545,1.34544 -4.74082,4.03508 -5.31055,6.77734 -0.73554,3.54036 0.16525,7.89739 1.46289,11.34486 m 13.55386,34.54371 c 0.19915,1.30564 0.20893,2.14881 0.0829,3.0294 -0.20241,1.4138 -0.76347,3.03843 -4.45545,4.08389 M 21.845702,120.28125 c -1.965665,-1.10304 -3.085864,-2.08694 -3.394531,-5.46484 -0.336954,-3.68747 1.840627,-6.03192 4.40039,-6.93164 0.639941,-0.22493 1.258398,-0.37912 1.84961,-0.43165 1.773637,-0.15758 3.305564,0.60865 4.470703,3.18165 m 119.894536,53.20507 c 4.22393,-0.58794 8.05488,-1.84222 10.3125,-5.25781 1.64423,-2.48758 2.42608,-5.32859 2.0664,-7.99023 -0.35967,-2.66164 -1.71469,-4.89027 -3.35547,-6.71094 m -24.31054,-15.7793 c -1.37357,-1.08948 -2.275,-2.08973 -2.56446,-2.74609 -1.07055,-2.4275 1.88475,-3.31261 3.09375,-3.45313 m 43.78321,2.8125 c 1.96779,0.5823 4.60332,1.83628 4.8004,4.05497"
       style="color:#000000;font-style:normal;font-variant:normal;font-weight:normal;font-stretch:normal;font-size:medium;line-height:normal;font-family:sans-serif;font-variant-ligatures:normal;font-variant-position:normal;font-variant-caps:normal;font-variant-numeric:normal;font-variant-alternates:normal;font-feature-settings:normal;text-indent:0;text-align:start;text-decoration:none;text-decoration-line:none;text-decoration-style:solid;text-decoration-color:#000000;letter-spacing:normal;word-spacing:normal;text-transform:none;writing-mode:lr-tb;direction:ltr;text-orientation:mixed;dominant-baseline:auto;baseline-shift:baseline;text-anchor:start;white-space:normal;shape-padding:0;clip-rule:nonzero;display:inline;overflow:visible;visibility:visible;opacity:1;isolation:auto;mix-blend-mode:normal;color-interpolation:sRGB;color-interpolation-filters:linearRGB;solid-color:#000000;solid-opacity:1;vector-effect:none;fill:none;fill-opacity:1;fill-rule:evenodd;stroke:#ffffff;stroke-width:0.50000001;stroke-linecap:butt;stroke-linejoin:round;stroke-miterlimit:6.5;stroke-dasharray:none;stroke-dashoffset:0;stroke-opacity:1;color-rendering:auto;image-rendering:auto;shape-rendering:auto;text-rendering:auto;enable-background:accumulate" />
    <path
       style="color:#000000;font-style:normal;font-variant:normal;font-weight:normal;font-stretch:normal;font-size:medium;line-height:normal;font-family:sans-serif;font-variant-ligatures:normal;font-variant-position:normal;font-variant-caps:normal;font-variant-numeric:normal;font-variant-alternates:normal;font-feature-settings:normal;text-indent:0;text-align:start;text-decoration:none;text-decoration-line:none;text-decoration-style:solid;text-decoration-color:#000000;letter-spacing:normal;word-spacing:normal;text-transform:none;writing-mode:lr-tb;direction:ltr;text-orientation:mixed;dominant-baseline:auto;baseline-shift:baseline;text-anchor:start;white-space:normal;shape-padding:0;clip-rule:nonzero;display:inline;overflow:visible;visibility:visible;opacity:1;isolation:auto;mix-blend-mode:normal;color-interpolation:sRGB;color-interpolation-filters:linearRGB;solid-color:#000000;solid-opacity:1;vector-effect:none;fill:none;fill-opacity:1;fill-rule:evenodd;stroke:#c14c4c;stroke-width:0.5;stroke-linecap:butt;stroke-linejoin:round;stroke-miterlimit:6.5;stroke-dasharray:0.25000001, 0.25000001;stroke-dashoffset:0;stroke-opacity:1;color-rendering:auto;image-rendering:auto;shape-rendering:auto;text-rendering:auto;enable-background:accumulate"
       d="m 181.76979,244.37186 c -2.2509,2.35552 -4.29327,2.13472 -5.78737,0.88009 m -5.1289,-7.67968 c -1.7746,-3.40904 -3.47415,-7.14221 -6.14844,-10.13477 -1.33715,-1.49628 -3.02685,-2.8777 -5.25196,-3.51953 -2.2251,-0.64183 -4.7952,-0.32599 -7.04296,0.76758 -2.76545,1.34544 -4.74082,4.03508 -5.31055,6.77734 -0.73554,3.54036 0.16525,7.89739 1.46289,11.34486 m 13.55386,34.54371 c 0.19915,1.30564 0.20893,2.14881 0.0829,3.0294 -0.20241,1.4138 -0.76347,3.03843 -4.45545,4.08389 M 21.845702,120.28125 c -1.965665,-1.10304 -3.085864,-2.08694 -3.394531,-5.46484 -0.336954,-3.68747 1.840627,-6.03192 4.40039,-6.93164 0.639941,-0.22493 1.258398,-0.37912 1.84961,-0.43165 1.773637,-0.15758 3.305564,0.60865 4.470703,3.18165 m 119.894536,53.20507 c 4.22393,-0.58794 8.05488,-1.84222 10.3125,-5.25781 1.64423,-2.48758 2.42608,-5.32859 2.0664,-7.99023 -0.35967,-2.66164 -1.71469,-4.89027 -3.35547,-6.71094 m -24.31054,-15.7793 c -1.37357,-1.08948 -2.275,-2.08973 -2.56446,-2.74609 -1.07055,-2.4275 1.88475,-3.31261 3.09375,-3.45313 m 43.78321,2.8125 c 1.96779,0.5823 4.60332,1.83628 4.8004,4.05497"
       id="path2423"
       inkscape:connector-curvature="0"
       sodipodi:nodetypes="ccccccsccsccsscccscccsccc" />
    <path
       sodipodi:nodetypes="csccssccscccsscccssccscccccc"
       inkscape:connector-curvature="0"
       id="path874"
       d="m 169.50154,250.20765 c 4.00563,4.17764 10.08336,4.82524 14.94768,2.17126 3.7027,-2.0202 6.05943,-5.63282 7.74414,-9.87305 m -1.383,-115.69699 c -0.31838,-2.36128 -2.20672,-4.47931 -2.76377,-5.06343 -2.07235,-2.1731 -3.71129,-3.69347 -7.90206,-4.76302 -3.2355,-0.82575 -5.34333,-0.72371 -10.05673,0.13858 m -33.24619,-3.30766 c -6.74912,-0.43383 -11.74139,3.09807 -13.30059,7.52455 -0.91267,2.59101 -0.56949,5.48116 0.56054,7.67773 1.13004,2.19658 2.82137,3.85785 4.70703,5.35352 m 23.33789,14.86719 c 0.93919,1.04216 1.29148,1.83837 1.3711,2.42773 0.0796,0.58936 0.31587,1.46783 -0.8125,2.50586 -0.39279,0.36134 -1.60531,1.31169 -4.74024,1.74805 M 36.460938,107.33398 c -2.313221,-5.10831 -7.094863,-7.617919 -11.748047,-7.707027 -1.551062,-0.0297 -3.086922,0.209454 -4.513672,0.710937 -5.707,2.00593 -10.3842421,7.88146 -9.714844,15.20703 0.522407,5.71698 3.896835,9.72165 7.445313,11.71289 M 155.42023,293.31835 c 4.31078,-0.75891 7.02865,-1.22217 10.47039,-3.93749 2.51783,-1.98641 3.83827,-4.99959 4.23633,-7.91992 0.39807,-2.92034 -9e-5,-5.87326 -0.75,-8.88282 M 154.99599,236.2388 c -0.26442,-1.3175 -0.25624,-2.25909 -0.078,-3.0806 0.26469,-0.95759 1.28375,-1.82485 2.31836,-1.55468 1.16296,0.40939 1.82278,0.92076 2.6398,2.467"
       style="color:#000000;font-style:normal;font-variant:normal;font-weight:normal;font-stretch:normal;font-size:medium;line-height:normal;font-family:sans-serif;font-variant-ligatures:normal;font-variant-position:normal;font-variant-caps:normal;font-variant-numeric:normal;font-variant-alternates:normal;font-feature-settings:normal;text-indent:0;text-align:start;text-decoration:none;text-decoration-line:none;text-decoration-style:solid;text-decoration-color:#000000;letter-spacing:normal;word-spacing:normal;text-transform:none;writing-mode:lr-tb;direction:ltr;text-orientation:mixed;dominant-baseline:auto;baseline-shift:baseline;text-anchor:start;white-space:normal;shape-padding:0;clip-rule:nonzero;display:inline;overflow:visible;visibility:visible;opacity:1;isolation:auto;mix-blend-mode:normal;color-interpolation:sRGB;color-interpolation-filters:linearRGB;solid-color:#000000;solid-opacity:1;vector-effect:none;fill:none;fill-opacity:1;fill-rule:evenodd;stroke:#ffffff;stroke-width:0.50000001;stroke-linecap:butt;stroke-linejoin:round;stroke-miterlimit:6.5;stroke-dasharray:none;stroke-dashoffset:0;stroke-opacity:1;color-rendering:auto;image-rendering:auto;shape-rendering:auto;text-rendering:auto;enable-background:accumulate" />
    <path
       style="color:#000000;font-style:normal;font-variant:normal;font-weight:normal;font-stretch:normal;font-size:medium;line-height:normal;font-family:sans-serif;font-variant-ligatures:normal;font-variant-position:normal;font-variant-caps:normal;font-variant-numeric:normal;font-variant-alternates:normal;font-feature-settings:normal;text-indent:0;text-align:start;text-decoration:none;text-decoration-line:none;text-decoration-style:solid;text-decoration-color:#000000;letter-spacing:normal;word-spacing:normal;text-transform:none;writing-mode:lr-tb;direction:ltr;text-orientation:mixed;dominant-baseline:auto;baseline-shift:baseline;text-anchor:start;white-space:normal;shape-padding:0;clip-rule:nonzero;display:inline;overflow:visible;visibility:visible;opacity:1;isolation:auto;mix-blend-mode:normal;color-interpolation:sRGB;color-interpolation-filters:linearRGB;solid-color:#000000;solid-opacity:1;vector-effect:none;fill:none;fill-opacity:1;fill-rule:evenodd;stroke:#c14c4c;stroke-width:0.5;stroke-linecap:butt;stroke-linejoin:round;stroke-miterlimit:6.5;stroke-dasharray:0.25000001, 0.25000001;stroke-dashoffset:0;stroke-opacity:1;color-rendering:auto;image-rendering:auto;shape-rendering:auto;text-rendering:auto;enable-background:accumulate"
       d="m 169.50154,250.20765 c 4.00563,4.17764 10.08336,4.82524 14.94768,2.17126 3.7027,-2.0202 6.05943,-5.63282 7.74414,-9.87305 m -1.383,-115.69699 c -0.31838,-2.36128 -2.20672,-4.47931 -2.76377,-5.06343 -2.07235,-2.1731 -3.71129,-3.69347 -7.90206,-4.76302 -3.2355,-0.82575 -5.34333,-0.72371 -10.05673,0.13858 m -33.24619,-3.30766 c -6.74912,-0.43383 -11.74139,3.09807 -13.30059,7.52455 -0.91267,2.59101 -0.56949,5.48116 0.56054,7.67773 1.13004,2.19658 2.82137,3.85785 4.70703,5.35352 m 23.33789,14.86719 c 0.93919,1.04216 1.29148,1.83837 1.3711,2.42773 0.0796,0.58936 0.31587,1.46783 -0.8125,2.50586 -0.39279,0.36134 -1.60531,1.31169 -4.74024,1.74805 M 36.460938,107.33398 c -2.313221,-5.10831 -7.094863,-7.617919 -11.748047,-7.707027 -1.551062,-0.0297 -3.086922,0.209454 -4.513672,0.710937 -5.707,2.00593 -10.3842421,7.88146 -9.714844,15.20703 0.522407,5.71698 3.896835,9.72165 7.445313,11.71289 M 155.42023,293.31835 c 4.31078,-0.75891 7.02865,-1.22217 10.47039,-3.93749 2.51783,-1.98641 3.83827,-4.99959 4.23633,-7.91992 0.39807,-2.92034 -9e-5,-5.87326 -0.75,-8.88282 M 154.99599,236.2388 c -0.26442,-1.3175 -0.25624,-2.25909 -0.078,-3.0806 0.26469,-0.95759 1.28375,-1.82485 2.31836,-1.55468 1.16296,0.40939 1.82278,0.92076 2.6398,2.467"
       id="path2427"
       inkscape:connector-curvature="0"
       sodipodi:nodetypes="csccssccscccsscccssccscccccc" />
    <path
       style="color:#000000;font-style:normal;font-variant:normal;font-weight:normal;font-stretch:normal;font-size:medium;line-height:normal;font-family:sans-serif;font-variant-ligatures:normal;font-variant-position:normal;font-variant-caps:normal;font-variant-numeric:normal;font-variant-alternates:normal;font-feature-settings:normal;text-indent:0;text-align:start;text-decoration:none;text-decoration-line:none;text-decoration-style:solid;text-decoration-color:#000000;letter-spacing:normal;word-spacing:normal;text-transform:none;writing-mode:lr-tb;direction:ltr;text-orientation:mixed;dominant-baseline:auto;baseline-shift:baseline;text-anchor:start;white-space:normal;shape-padding:0;clip-rule:nonzero;display:inline;overflow:visible;visibility:visible;opacity:1;isolation:auto;mix-blend-mode:normal;color-interpolation:sRGB;color-interpolation-filters:linearRGB;solid-color:#000000;solid-opacity:1;vector-effect:none;fill:#626262;fill-opacity:1;fill-rule:evenodd;stroke:none;stroke-width:8;stroke-linecap:square;stroke-linejoin:round;stroke-miterlimit:6.5;stroke-dasharray:none;stroke-dashoffset:0;stroke-opacity:1;color-rendering:auto;image-rendering:auto;shape-rendering:auto;text-rendering:auto;enable-background:accumulate"
       d="m 24.712891,99.626953 c -1.551062,-0.0297 -3.086922,0.209454 -4.513672,0.710937 -5.707,2.00593 -10.3842421,7.88146 -9.714844,15.20703 0.522407,5.71698 3.896835,9.72165 7.445313,11.71289 3.548477,1.99124 7.190166,2.60086 9.257812,3.23828 6.988656,2.15448 10.738293,7.83833 13.101562,17.21485 2.36327,9.37652 2.80845,21.92679 2.830079,35.32617 0.04326,26.79875 -2.044969,56.98971 10.521484,75.57812 12.774236,18.89577 26.8379,28.26343 38.71875,32.04102 9.209795,2.92831 24.605365,4.37943 39.238285,4.43555 7.31645,0.0281 14.37404,-0.32094 20.28125,-1.13868 5.9072,-0.81773 10.54714,-1.68338 14.01171,-4.57226 2.46314,-2.05385 3.83827,-4.99959 4.23633,-7.91992 0.39807,-2.92034 -9e-5,-5.87326 -0.75,-8.88282 -1.49981,-6.0191 -4.50002,-12.39332 -7.37109,-18.53124 -2.87107,-6.13793 -5.61241,-12.06607 -6.67578,-16.30469 -0.53169,-2.11931 -0.57243,-3.7588 -0.41211,-4.58399 0.0947,-0.48741 0.44466,-0.96465 0.99219,-1.27929 0.57141,-0.32837 0.95462,-0.33646 1.32617,-0.27539 0.45045,0.074 1.22328,0.49768 1.75447,1.11395 1.40097,1.62538 2.9236,5.00888 4.76701,8.55011 1.84341,3.54122 3.77603,7.33489 7.08008,10.10937 3.30405,2.77448 8.74701,3.65594 13.61133,1.00196 3.7027,-2.0202 6.05943,-5.63282 7.74414,-9.87305 1.68471,-4.24023 0.98651,-9.53132 0.98651,-15.24051 0,-11.54211 -0.006,-27.10929 -0.006,-40.97462 0,-13.68031 -0.21448,-24.47797 -0.21448,-36.64034 0,-11.26615 -1.8884,-21.58584 -2.06594,-22.62891 -0.1158,-0.6803 -0.45898,-2.08081 -1.22824,-3.1263 -2.27549,-3.09259 -4.6051,-5.5076 -9.52027,-6.91276 -3.65947,-1.04618 -8.2505,-0.57818 -13.26953,0.89453 -3.64184,1.06861 -12.64462,-0.90002 -21.10156,-2.71484 -4.22847,-0.90741 -8.36963,-1.64681 -12.38086,-1.20703 -3.34734,0.367 -8.29236,2.95633 -9.85156,7.38281 -0.91267,2.59101 -0.56949,5.48116 0.56054,7.67773 1.13004,2.19658 2.82137,3.85785 4.70703,5.35352 3.77132,2.99133 8.55113,5.39285 12.98243,7.82617 4.43129,2.43333 8.47708,4.95669 10.35546,7.04102 0.93919,1.04216 1.23772,1.84816 1.3711,2.42773 0.17985,0.78146 0.16654,1.49406 -0.8125,2.50586 -0.24212,0.25022 -1.60531,1.31169 -4.74024,1.74805 -3.13492,0.43636 -7.60594,0.36197 -12.84179,-0.26367 -10.4717,-1.2513 -24.04379,-4.63764 -37.724612,-9.45313 -13.68082,-4.81548 -27.508295,-11.06607 -38.625,-17.92773 -11.116706,-6.86166 -19.391076,-14.48803 -22.3125,-20.93946 -2.313221,-5.10831 -7.094863,-7.617919 -11.748047,-7.707027 z m -0.01172,7.826167 c 1.773637,-0.15758 3.305564,0.60865 4.470703,3.18165 4.164733,9.19703 13.612647,17.17066 25.398437,24.44531 11.785791,7.27464 26.042577,13.69462 40.171876,18.66797 14.129303,4.97334 28.094313,8.49488 39.431643,9.84961 5.66866,0.67736 10.66864,0.83013 14.89258,0.24218 4.22393,-0.58794 8.05488,-1.84222 10.3125,-5.25781 1.64423,-2.48758 2.42608,-5.32859 2.0664,-7.99023 -0.35967,-2.66164 -1.71469,-4.89027 -3.35547,-6.71094 -3.28155,-3.64135 -7.88797,-6.19454 -12.44922,-8.69922 -4.56124,-2.50468 -9.11419,-4.90111 -11.86132,-7.08008 -1.37357,-1.08948 -2.23688,-2.1079 -2.56446,-2.74609 -0.19453,-0.37898 -0.28149,-0.83235 -0.17066,-1.40114 0.28151,-1.44479 2.5282,-2.01421 3.26441,-2.05199 2.22625,-0.11424 5.8115,0.22889 9.78711,1.08204 7.95124,1.70629 17.17666,5.19281 25.3086,2.48242 3.5305,-1.17673 6.48403,-1.33662 8.6875,-0.75196 2.00885,0.53303 4.36587,1.64583 4.84765,3.77149 0.96406,4.25355 2.0625,11.67363 2.0625,21.99023 0,11.16223 0.18322,22.59071 0.18322,36.23214 0,13.62387 0.0533,28.90445 0.0533,39.58009 0,5.28287 0.8134,10.01188 -0.47869,13.26394 -1.2921,3.25207 -2.93909,4.92104 -4.14258,5.80469 -1.61094,1.18281 -3.46167,0.90024 -4.63477,-0.10547 -1.48119,-1.26984 -3.3543,-4.27065 -5.1289,-7.67968 -1.7746,-3.40904 -3.47415,-7.14221 -6.14844,-10.13477 -1.33715,-1.49628 -3.02685,-2.8777 -5.25196,-3.51953 -2.2251,-0.64183 -4.7952,-0.32599 -7.04296,0.76758 -2.76545,1.34544 -4.71675,4.04019 -5.31055,6.77734 -0.5938,2.73716 -0.17961,5.44606 0.51795,8.22656 1.39513,5.56101 4.28033,11.62978 7.14221,17.74805 2.86187,6.11827 5.65537,12.25796 6.85546,17.07422 0.60005,2.40813 0.77688,4.45401 0.58399,5.86914 -0.19289,1.41513 -0.57448,2.14074 -1.43164,2.85547 -0.59745,0.49817 -4.63955,2.05281 -9.98633,2.79297 -5.34678,0.74016 -12.11665,1.08949 -19.1543,1.0625 -14.0753,-0.054 -29.4958,-1.72422 -36.843748,-4.06055 C 84.79173,279.8544 72.21019,271.7975 60.26953,254.13477 50.364047,239.48249 51.162874,210.11916 51.11914,183.02539 51.09727,169.4785 50.754237,156.49761 48.046874,145.75586 c -2.707363,-10.74175 -8.312543,-19.76248 -18.503906,-22.9043 -2.840742,-0.87575 -5.7316,-1.46727 -7.697266,-2.57031 -1.965665,-1.10304 -3.085864,-2.08694 -3.394531,-5.46484 -0.336954,-3.68747 1.840627,-6.03192 4.40039,-6.93164 0.639941,-0.22493 1.258398,-0.37912 1.84961,-0.43165 z"
       id="path2419"
       inkscape:connector-curvature="0"
       sodipodi:nodetypes="cssssssssccscssssssscsssssssssssssccccssscssccccssscsccscsssccsssssccsscccscccscscsssssssscc" />
  </g>
</svg>
